AEMET service • meteospain
…
AEMET stations info

Accessing station metadata for AEMET is simple:

get_stations_info_from('aemet', api_options)
#> Simple feature collection with 947 features and 5 fields
#> Geometry type: POINT
#> Dimension:     XY
#> Bounding box:  xmin: -18.115 ymin: 27.66528 xmax: 4.323889 ymax: 43.78611
#> Geodetic CRS:  WGS 84
#> # A tibble: 947 × 6
#>    service station_id station_name                  station_province altitude
#>  * <chr>   <chr>      <chr>                         <chr>                 [m]
#>  1 aemet   B013X      ESCORCA, LLUC                 ILLES BALEARS         490
#>  2 aemet   B051A      SÓLLER, PUERTO                ILLES BALEARS           5
#>  3 aemet   B087X      BANYALBUFAR                   ILLES BALEARS          60
#>  4 aemet   B103B      ANDRATX - SANT ELM            ILLES BALEARS          52
#>  5 aemet   B158X      CALVIÀ, ES CAPDELLÀ           BALEARES               50
#>  6 aemet   B228       PALMA, PUERTO                 ILLES BALEARS           3
#>  7 aemet   B236C      PALMA, UNIVERSITAT            ILLES BALEARS          95
#>  8 aemet   B248       SIERRA DE ALFABIA, BUNYOLA    ILLES BALEARS        1030
#>  9 aemet   B275E      SON BONET, AEROPUERTO         BALEARES               47
#> 10 aemet   B278       PALMA DE MALLORCA, AEROPUERTO BALEARES                5
#> # ℹ 937 more rows
#> # ℹ 1 more variable: geometry <POINT [°]>
…
  resolution = 'daily',
  start_date = as.Date('2020-04-25'),
  api_key = key_get('aemet')
)
spain_20200425 <- get_meteo_from('aemet', options = api_options)
#> ℹ © AEMET. Autorizado el uso de la información y su reproducción citando a
#>   AEMET como autora de la misma.
#> https://www.aemet.es/es/nota_legal
spain_20200425
#> Simple feature collection with 846 features and 19 fields
#> Geometry type: POINT
#> Dimension:     XY
#> Bounding box:  xmin: -18.115 ymin: 27.66528 xmax: 4.323889 ymax: 43.78611
#> Geodetic CRS:  WGS 84
#> # A tibble: 846 × 20
#>    timestamp           service station_id station_name station_province altitude
#>  * <dttm>              <chr>   <chr>      <chr>        <chr>                 [m]
#>  1 2020-04-25 00:00:00 aemet   0009X      "ALFORJA"    TARRAGONA             406
#>  2 2020-04-25 00:00:00 aemet   0016A      "REUS AEROP… TARRAGONA              71
#>  3 2020-04-25 00:00:00 aemet   0016B      "REUS (CENT… TARRAGONA             118
#>  4 2020-04-25 00:00:00 aemet   0034X      "VALLS"      TARRAGONA             233
#>  5 2020-04-25 00:00:00 aemet   0042Y      "TARRAGONA " TARRAGONA              55
#>  6 2020-04-25 00:00:00 aemet   0061X      "PONTONS"    BARCELONA             632
#>  7 2020-04-25 00:00:00 aemet   0066X      "VILAFRANCA… BARCELONA             177
#>  8 2020-04-25 00:00:00 aemet   0073X      "SITGES"     BARCELONA              58
#>  9 2020-04-25 00:00:00 aemet   0076       "BARCELONA … BARCELONA               4
#> 10 2020-04-25 00:00:00 aemet   0092X      "BERGA"      BARCELONA             682
#> # ℹ 836 more rows
#> # ℹ 14 more variables: mean_temperature [°C], min_temperature [°C],
#> #   max_temperature [°C], mean_relative_humidity [%],
#> #   min_relative_humidity [%], max_relative_humidity [%],
#> #   precipitation [L/m^2], wind_direction [°], mean_wind_speed [m/s],
#> #   max_wind_speed [m/s], insolation [h], max_atmospheric_pressure [hPa],
#> #   min_atmospheric_pressure [hPa], geometry <POINT [°]>
…
