API limits and loops • meteospain
…
res <- rbind(res_1990_jan, res_1990_feb)
res
#> Simple feature collection with 7015 features and 12 fields
#> Geometry type: POINT
#> Dimension:     XY
#> Bounding box:  xmin: -17.532 ymin: 27.4908 xmax: 4.1256 ymax: 43.3401
#> Geodetic CRS:  WGS 84
#> # A tibble: 7,015 × 13
#>    timestamp           service station_id station_name station_province altitude
#>  * <dttm>              <chr>   <chr>      <chr>        <chr>                 [m]
#>  1 1990-01-01 00:00:00 aemet   0002I      "VANDELLÒS … TARRAGONA              32
#>  2 1990-01-01 00:00:00 aemet   0016A      "REUS AEROP… TARRAGONA              71
#>  3 1990-01-01 00:00:00 aemet   0076       "BARCELONA … BARCELONA               4
#>  4 1990-01-01 00:00:00 aemet   0200E      "BARCELONA,… BARCELONA             408
#>  5 1990-01-01 00:00:00 aemet   0229I      "SABADELL A… BARCELONA             146
#>  6 1990-01-01 00:00:00 aemet   0324A      "RIPOLL"     GIRONA                675
#>  7 1990-01-01 00:00:00 aemet   0367       "GIRONA AER… GIRONA                143
#>  8 1990-01-01 00:00:00 aemet   1014       "HONDARRIBI… GIPUZKOA                4
#>  9 1990-01-01 00:00:00 aemet   1024E      "DONOSTIA/S… GIPUZKOA              251
#> 10 1990-01-01 00:00:00 aemet   1082       "BILBAO AER… BIZKAIA                42
#> # … with 7,005 more rows, and 7 more variables: mean_temperature [°C],
#> #   min_temperature [°C], max_temperature [°C], precipitation [L/m^2],
#> #   mean_wind_speed [m/s], insolation [h], geometry <POINT [°]>
…
res_tidyverse
#> Simple feature collection with 21553 features and 12 fields
#> Geometry type: POINT
#> Dimension:     XY
#> Bounding box:  xmin: -17.532 ymin: 27.4908 xmax: 4.1256 ymax: 43.3401
#> Geodetic CRS:  WGS 84
#> # A tibble: 21,553 × 13
#>    timestamp           service station_id station_name station_province altitude
#>  * <dttm>              <chr>   <chr>      <chr>        <chr>                 [m]
#>  1 1990-01-01 00:00:00 aemet   0002I      "VANDELLÒS … TARRAGONA              32
#>  2 1990-01-01 00:00:00 aemet   0016A      "REUS AEROP… TARRAGONA              71
#>  3 1990-01-01 00:00:00 aemet   0076       "BARCELONA … BARCELONA               4
#>  4 1990-01-01 00:00:00 aemet   0200E      "BARCELONA,… BARCELONA             408
#>  5 1990-01-01 00:00:00 aemet   0229I      "SABADELL A… BARCELONA             146
#>  6 1990-01-01 00:00:00 aemet   0324A      "RIPOLL"     GIRONA                675
#>  7 1990-01-01 00:00:00 aemet   0367       "GIRONA AER… GIRONA                143
#>  8 1990-01-01 00:00:00 aemet   1014       "HONDARRIBI… GIPUZKOA                4
#>  9 1990-01-01 00:00:00 aemet   1024E      "DONOSTIA/S… GIPUZKOA              251
#> 10 1990-01-01 00:00:00 aemet   1082       "BILBAO AER… BIZKAIA                42
#> # … with 21,543 more rows, and 7 more variables: mean_temperature [°C],
#> #   min_temperature [°C], max_temperature [°C], precipitation [L/m^2],
#> #   mean_wind_speed [m/s], insolation [h], geometry <POINT [°]>
…
  res_for <- rbind(res_for, temp_res)
}

res_for
#> Simple feature collection with 21553 features and 12 fields
#> Geometry type: POINT
#> Dimension:     XY
#> Bounding box:  xmin: -17.532 ymin: 27.4908 xmax: 4.1256 ymax: 43.3401
#> Geodetic CRS:  WGS 84
#> # A tibble: 21,553 × 13
#>    timestamp           service station_id station_name station_province altitude
#>  * <dttm>              <chr>   <chr>      <chr>        <chr>                 [m]
#>  1 1990-01-01 00:00:00 aemet   0002I      "VANDELLÒS … TARRAGONA              32
#>  2 1990-01-01 00:00:00 aemet   0016A      "REUS AEROP… TARRAGONA              71
#>  3 1990-01-01 00:00:00 aemet   0076       "BARCELONA … BARCELONA               4
#>  4 1990-01-01 00:00:00 aemet   0200E      "BARCELONA,… BARCELONA             408
#>  5 1990-01-01 00:00:00 aemet   0229I      "SABADELL A… BARCELONA             146
#>  6 1990-01-01 00:00:00 aemet   0324A      "RIPOLL"     GIRONA                675
#>  7 1990-01-01 00:00:00 aemet   0367       "GIRONA AER… GIRONA                143
#>  8 1990-01-01 00:00:00 aemet   1014       "HONDARRIBI… GIPUZKOA                4
#>  9 1990-01-01 00:00:00 aemet   1024E      "DONOSTIA/S… GIPUZKOA              251
#> 10 1990-01-01 00:00:00 aemet   1082       "BILBAO AER… BIZKAIA                42
#> # … with 21,543 more rows, and 7 more variables: mean_temperature [°C],
#> #   min_temperature [°C], max_temperature [°C], precipitation [L/m^2],
#> #   mean_wind_speed [m/s], insolation [h], geometry <POINT [°]>
…
#> Data provided by meteo.cat © Servei Meteorològic de Catalunya
#> https://www.meteo.cat/wpweb/avis-legal/#info
#> Data provided by meteo.cat © Servei Meteorològic de Catalunya
#> https://www.meteo.cat/wpweb/avis-legal/#info
#> Data provided by meteo.cat © Servei Meteorològic de Catalunya
#> https://www.meteo.cat/wpweb/avis-legal/#info
#> Data provided by meteo.cat © Servei Meteorològic de Catalunya
#> https://www.meteo.cat/wpweb/avis-legal/#info
meteocat_2020q1_tidyverse
#> Simple feature collection with 22627 features and 16 fields
#> Geometry type: POINT
#> Dimension:     XY
#> Bounding box:  xmin: 0.30565 ymin: 40.55786 xmax: 3.18165 ymax: 42.77011
#> Geodetic CRS:  WGS 84
#> # A tibble: 22,627 × 17
#>    timestamp           service station_id station_name station_province altitude
#>  * <dttm>              <chr>   <chr>      <chr>        <chr>                 [m]
#>  1 2020-01-01 00:00:00 meteoc… C6         Castellnou … Lleida               264 
#>  2 2020-01-01 00:00:00 meteoc… C7         Tàrrega      Lleida               427 
#>  3 2020-01-01 00:00:00 meteoc… C8         Cervera      Lleida               554 
#>  4 2020-01-01 00:00:00 meteoc… C9         Mas de Barb… Tarragona            240 
#>  5 2020-01-01 00:00:00 meteoc… CC         Orís         Barcelona            626 
#>  6 2020-01-01 00:00:00 meteoc… CD         la Seu d'Ur… Lleida               849 
#>  7 2020-01-01 00:00:00 meteoc… CE         els Hostale… Barcelona            316 
#>  8 2020-01-01 00:00:00 meteoc… CG         Molló - Fab… Girona              1405 
#>  9 2020-01-01 00:00:00 meteoc… CI         Sant Pau de… Girona               852 
#> 10 2020-01-01 00:00:00 meteoc… CJ         Organyà      Lleida               566.
#> # … with 22,617 more rows, and 11 more variables: mean_temperature [°C],
#> #   min_temperature [°C], max_temperature [°C], mean_relative_humidity [%],
#> #   min_relative_humidity [%], max_relative_humidity [%],
#> #   precipitation [L/m^2], mean_wind_direction [°], mean_wind_speed [m/s],
#> #   global_solar_radiation [MJ/m^2], geometry <POINT [°]>
…
  meteocat_2020q1_for <- rbind(meteocat_2020q1_for, temp_res)
}
meteocat_2020q1_for
#> Simple feature collection with 22627 features and 16 fields
#> Geometry type: POINT
#> Dimension:     XY
#> Bounding box:  xmin: 0.30565 ymin: 40.55786 xmax: 3.18165 ymax: 42.77011
#> Geodetic CRS:  WGS 84
#> # A tibble: 22,627 × 17
#>    timestamp           service station_id station_name station_province altitude
#>  * <dttm>              <chr>   <chr>      <chr>        <chr>                 [m]
#>  1 2020-01-01 00:00:00 meteoc… C6         Castellnou … Lleida               264 
#>  2 2020-01-01 00:00:00 meteoc… C7         Tàrrega      Lleida               427 
#>  3 2020-01-01 00:00:00 meteoc… C8         Cervera      Lleida               554 
#>  4 2020-01-01 00:00:00 meteoc… C9         Mas de Barb… Tarragona            240 
#>  5 2020-01-01 00:00:00 meteoc… CC         Orís         Barcelona            626 
#>  6 2020-01-01 00:00:00 meteoc… CD         la Seu d'Ur… Lleida               849 
#>  7 2020-01-01 00:00:00 meteoc… CE         els Hostale… Barcelona            316 
#>  8 2020-01-01 00:00:00 meteoc… CG         Molló - Fab… Girona              1405 
#>  9 2020-01-01 00:00:00 meteoc… CI         Sant Pau de… Girona               852 
#> 10 2020-01-01 00:00:00 meteoc… CJ         Organyà      Lleida               566.
#> # … with 22,617 more rows, and 11 more variables: mean_temperature [°C],
#> #   min_temperature [°C], max_temperature [°C], mean_relative_humidity [%],
#> #   min_relative_humidity [%], max_relative_humidity [%],
#> #   precipitation [L/m^2], mean_wind_direction [°], mean_wind_speed [m/s],
#> #   global_solar_radiation [MJ/m^2], geometry <POINT [°]>
…
      )
      return(res)
    }
  )
#> Data provided by meteo.cat © Servei Meteorològic de Catalunya
#> https://www.meteo.cat/wpweb/avis-legal/#info
#> Data provided by meteo.cat © Servei Meteorològic de Catalunya
#> https://www.meteo.cat/wpweb/avis-legal/#info
meteocat_2019_20_tidyverse
#> Simple feature collection with 4502 features and 20 fields (with 11 geometries empty)
#> Geometry type: POINT
#> Dimension:     XY
#> Bounding box:  xmin: 0.30565 ymin: 40.55786 xmax: 3.18165 ymax: 42.77011
#> Geodetic CRS:  WGS 84
#> # A tibble: 4,502 × 21
#>    timestamp           service station_id station_name station_province altitude
#>  * <dttm>              <chr>   <chr>      <chr>        <chr>                 [m]
#>  1 2019-01-01 00:00:00 meteoc… C6         Castellnou … Lleida               264 
#>  2 2019-01-01 00:00:00 meteoc… C7         Tàrrega      Lleida               427 
#>  3 2019-01-01 00:00:00 meteoc… C8         Cervera      Lleida               554 
#>  4 2019-01-01 00:00:00 meteoc… C9         Mas de Barb… Tarragona            240 
#>  5 2019-01-01 00:00:00 meteoc… CC         Orís         Barcelona            626 
#>  6 2019-01-01 00:00:00 meteoc… CD         la Seu d'Ur… Lleida               849 
#>  7 2019-01-01 00:00:00 meteoc… CE         els Hostale… Barcelona            316 
#>  8 2019-01-01 00:00:00 meteoc… CG         Molló - Fab… Girona              1405 
#>  9 2019-01-01 00:00:00 meteoc… CI         Sant Pau de… Girona               852 
#> 10 2019-01-01 00:00:00 meteoc… CJ         Organyà      Lleida               566.
#> # … with 4,492 more rows, and 15 more variables: mean_temperature [°C],
#> #   min_temperature_absolute [°C], min_temperature_mean [°C],
#> #   max_temperature_absolute [°C], max_temperature_mean [°C],
#> #   mean_relative_humidity [%], min_relative_humidity_absolute [%],
#> #   min_relative_humidity_mean [%], max_relative_humidity_absolute [%],
#> #   max_relative_humidity_mean [%], precipitation [L/m^2],
#> #   mean_wind_direction [°], mean_wind_speed [m/s], …
…
  meteocat_2019_20_for <- rbind(meteocat_2019_20_for, temp_res)
}
meteocat_2019_20_for
#> Simple feature collection with 4502 features and 20 fields (with 11 geometries empty)
#> Geometry type: POINT
#> Dimension:     XY
#> Bounding box:  xmin: 0.30565 ymin: 40.55786 xmax: 3.18165 ymax: 42.77011
#> Geodetic CRS:  WGS 84
#> # A tibble: 4,502 × 21
#>    timestamp           service station_id station_name station_province altitude
#>  * <dttm>              <chr>   <chr>      <chr>        <chr>                 [m]
#>  1 2019-01-01 00:00:00 meteoc… C6         Castellnou … Lleida               264 
#>  2 2019-01-01 00:00:00 meteoc… C7         Tàrrega      Lleida               427 
#>  3 2019-01-01 00:00:00 meteoc… C8         Cervera      Lleida               554 
#>  4 2019-01-01 00:00:00 meteoc… C9         Mas de Barb… Tarragona            240 
#>  5 2019-01-01 00:00:00 meteoc… CC         Orís         Barcelona            626 
#>  6 2019-01-01 00:00:00 meteoc… CD         la Seu d'Ur… Lleida               849 
#>  7 2019-01-01 00:00:00 meteoc… CE         els Hostale… Barcelona            316 
#>  8 2019-01-01 00:00:00 meteoc… CG         Molló - Fab… Girona              1405 
#>  9 2019-01-01 00:00:00 meteoc… CI         Sant Pau de… Girona               852 
#> 10 2019-01-01 00:00:00 meteoc… CJ         Organyà      Lleida               566.
#> # … with 4,492 more rows, and 15 more variables: mean_temperature [°C],
#> #   min_temperature_absolute [°C], min_temperature_mean [°C],
#> #   max_temperature_absolute [°C], max_temperature_mean [°C],
#> #   mean_relative_humidity [%], min_relative_humidity_absolute [%],
#> #   min_relative_humidity_mean [%], max_relative_humidity_absolute [%],
#> #   max_relative_humidity_mean [%], precipitation [L/m^2],
#> #   mean_wind_direction [°], mean_wind_speed [m/s], …
…
