…
april_2020_spain
#> Simple feature collection with 22197 features and 43 fields (with 120 geometries empty)
#> Geometry type: POINT
#> Dimension:     XY
#> Bounding box:  xmin: -18.115 ymin: 27.66528 xmax: 4.323889 ymax: 43.78611
#> Geodetic CRS:  WGS 84
#> # A tibble: 22,197 × 44
#>    timestamp           service station_id station_name station_province altitude
#>    <dttm>              <chr>   <chr>      <chr>        <chr>                 [m]
#>  1 2020-04-16 00:00:00 aemet   0009X      "ALFORJA"    TARRAGONA             406
#>  2 2020-04-16 00:00:00 aemet   0016A      "REUS AEROP… TARRAGONA              71
#>  3 2020-04-16 00:00:00 aemet   0016B      "REUS (CENT… TARRAGONA             118
#>  4 2020-04-16 00:00:00 aemet   0034X      "VALLS"      TARRAGONA             233
#>  5 2020-04-16 00:00:00 aemet   0042Y      "TARRAGONA " TARRAGONA              55
#>  6 2020-04-16 00:00:00 aemet   0061X      "PONTONS"    BARCELONA             632
#>  7 2020-04-16 00:00:00 aemet   0066X      "VILAFRANCA… BARCELONA             177
#>  8 2020-04-16 00:00:00 aemet   0073X      "SITGES"     BARCELONA              58
#>  9 2020-04-16 00:00:00 aemet   0076       "BARCELONA … BARCELONA               4
#> 10 2020-04-16 00:00:00 aemet   0092X      "BERGA"      BARCELONA             682
#> # ℹ 22,187 more rows
#> # ℹ 38 more variables: mean_temperature [°C], min_temperature [°C],
#> #   max_temperature [°C], mean_relative_humidity [%],
#> #   min_relative_humidity [%], max_relative_humidity [%],
#> #   precipitation [L/m^2], wind_direction [°], mean_wind_speed [m/s],
#> #   max_wind_speed [m/s], insolation [h], max_atmospheric_pressure [hPa],
#> #   min_atmospheric_pressure [hPa], geometry <POINT [°]>, …
```
…
