Compatibility between services • meteospain
…
april_2020_spain
#> Simple feature collection with 20502 features and 19 fields (with 180 geometries empty)
#> Geometry type: POINT
#> Dimension:     XY
#> Bounding box:  xmin: -17.91528 ymin: 27.73583 xmax: 4.215556 ymax: 43.78611
#> Geodetic CRS:  WGS 84
#> # A tibble: 20,502 × 20
#>    timestamp           service station…¹ stati…² stati…³ altit…⁴ mean_…⁵ min_t…⁶
#>    <dttm>              <chr>   <chr>     <chr>   <chr>       [m]    [°C]    [°C]
#>  1 2020-04-01 00:00:00 aemet   0016A     REUS A… TARRAG…      71    10.6     9.2
#>  2 2020-04-01 00:00:00 aemet   0076      BARCEL… BARCEL…       4    11.7    10.4
#>  3 2020-04-01 00:00:00 aemet   0149X     MANRESA BARCEL…     291     9.7     7.8
#>  4 2020-04-01 00:00:00 aemet   0200E     BARCEL… BARCEL…     408     8.4     7.1
#>  5 2020-04-01 00:00:00 aemet   0201D     BARCEL… BARCEL…       6    11       9.6
#>  6 2020-04-01 00:00:00 aemet   0252D     ARENYS… BARCEL…      74    10.6     9.4
#>  7 2020-04-01 00:00:00 aemet   0255B     SANTA … BARCEL…      40     9       7.8
#>  8 2020-04-01 00:00:00 aemet   0324A     RIPOLL  GIRONA      675     6.4     4.8
#>  9 2020-04-01 00:00:00 aemet   0367      GIRONA… GIRONA      143     8.9     7.8
#> 10 2020-04-01 00:00:00 aemet   0372C     PORQUE… GIRONA      157     8.2     6.9
#> # … with 20,492 more rows, 12 more variables: max_temperature [°C],
#> #   precipitation [L/m^2], mean_wind_speed [m/s], insolation [h],
#> #   geometry <POINT [°]>, mean_relative_humidity [%],
#> #   min_relative_humidity [%], max_relative_humidity [%],
#> #   mean_wind_direction [°], global_solar_radiation [MJ/m^2],
#> #   solar_radiation [MJ/d/m^2], under_plastic <lgl>, and abbreviated variable
#> #   names ¹​station_id, ²​station_name, ³​station_province, ⁴​altitude, …
…
