MeteoCat service • meteospain
…
MeteoCat stations info

Accessing station metadata for MeteoCat is simple:

get_stations_info_from('meteocat', api_options)
#> Simple feature collection with 234 features and 4 fields
#> Geometry type: POINT
#> Dimension:     XY
#> Bounding box:  xmin: 0.30565 ymin: 40.55219 xmax: 3.18165 ymax: 42.77011
#> Geodetic CRS:  WGS 84
#> # A tibble: 234 x 5
#>    station_id station_name     station_province altitude                geometry
#>  * <chr>      <chr>            <chr>                 [m]             <POINT [°]>
#>  1 AN         Barcelona - Av.… Barcelona             7.5      (2.18091 41.39004)
#>  2 CA         Clariana de Car… Lleida              693.0       (1.5851 41.95378)
#>  3 CB         les Llosses      Girona              700.0      (2.19914 42.15085)
#>  4 CC         Orís             Barcelona           626.0      (2.20862 42.07398)
#>  5 CD         la Seu d'Urgell… Lleida              849.0      (1.43277 42.37083)
#>  6 CE         els Hostalets d… Barcelona           316.0      (1.80813 41.53109)
#>  7 CF         Lloret de Mar    Girona               63.3      (2.84282 41.72346)
#>  8 CG         Molló - Fabert   Girona             1405.0      (2.41456 42.37717)
#>  9 CH         Falset - Escola  Tarragona           350.0      (0.82357 41.15076)
#> 10 CI         Sant Pau de Seg… Girona              852.0      (2.36429 42.25839)
#> # … with 224 more rows
…
api_options <- meteocat_options(
  resolution = 'monthly',
  start_date = as.Date('2020-04-01'),
  api_key = key_get('meteocat')
)
catalunya_2020 <- get_meteo_from('meteocat', options = api_options)
#> Data provided by meteo.cat © Servei Meteorològic de Catalunya
#> https://www.meteo.cat/wpweb/avis-legal/#info
catalunya_2020
#> Simple feature collection with 2256 features and 19 fields (with 12 geometries empty)
#> Geometry type: POINT
#> Dimension:     XY
#> Bounding box:  xmin: 0.30565 ymin: 40.55786 xmax: 3.18165 ymax: 42.77011
#> Geodetic CRS:  WGS 84
#> # A tibble: 2,256 x 20
#>    timestamp           station_id station_name         station_province altitude
#>    <dttm>              <chr>      <chr>                <chr>                 [m]
#>  1 2020-01-01 00:00:00 C6         Castellnou de Seana  Lleida              264.0
#>  2 2020-01-01 00:00:00 C7         Tàrrega              Lleida              427.0
#>  3 2020-01-01 00:00:00 C8         Cervera              Lleida              554.0
#>  4 2020-01-01 00:00:00 C9         Mas de Barberans     Tarragona           240.0
#>  5 2020-01-01 00:00:00 CC         Orís                 Barcelona           626.0
#>  6 2020-01-01 00:00:00 CD         la Seu d'Urgell - B… Lleida              849.0
#>  7 2020-01-01 00:00:00 CE         els Hostalets de Pi… Barcelona           316.0
#>  8 2020-01-01 00:00:00 CG         Molló - Fabert       Girona             1405.0
#>  9 2020-01-01 00:00:00 CI         Sant Pau de Segúries Girona              852.0
#> 10 2020-01-01 00:00:00 CJ         Organyà              Lleida              566.5
#> # … with 2,246 more rows, and 15 more variables: mean_temperature [°C],
#> #   max_temperature_absolute [°C], min_temperature_absolute [°C],
#> #   max_temperature_mean [°C], min_temperature_mean [°C],
#> #   mean_relative_humidity [%], max_relative_humidity_absolute [%],
#> #   min_relative_humidity_absolute [%], max_relative_humidity_mean [%],
#> #   min_relative_humidity_mean [%], precipitation [L/m^2],
#> #   mean_wind_speed [m/s], mean_wind_direction [°],
#> #   global_solar_radiation [MJ/m^2], geometry <POINT [°]>
…
