Meteoclimatic service • meteospain
…
Meteoclimatic stations info

Accessing station metadata for Meteoclimatic is simple:

get_stations_info_from('meteoclimatic', options = api_options)
#> Simple feature collection with 211 features and 3 fields
#> Geometry type: POINT
#> Dimension:     XY
#> Bounding box:  xmin: 1.59 ymin: 41.22 xmax: 2.72 ymax: 42.3
#> Geodetic CRS:  WGS 84
#> # A tibble: 211 × 4
#>    service       station_id          station_name          geometry
#>  * <chr>         <chr>               <chr>              <POINT [°]>
#>  1 meteoclimatic ESCAT0800000008591B Aiguafreda Aj. (… (2.25 41.77)
#>  2 meteoclimatic ESCAT0800000008328F Alella-Mirador (… (2.29 41.49)
#>  3 meteoclimatic ESCAT0800000008358A Arenys de Munt (… (2.54 41.61)
#>  4 meteoclimatic ESCAT0800000008310B Argentona (Barce… (2.39 41.56)
#>  5 meteoclimatic ESCAT0800000008915C Badalona - BCIN … (2.26 41.46)
#>  6 meteoclimatic ESCAT0800000008915A Badalona - Bufal… (2.24 41.46)
#>  7 meteoclimatic ESCAT0800000008912A Badalona - Centr… (2.25 41.45)
#>  8 meteoclimatic ESCAT0800000008911C Badalona - Dalt … (2.26 41.46)
#>  9 meteoclimatic ESCAT0800000008080A Badalona - Llefi… (2.23 41.44)
#> 10 meteoclimatic ESCAT0800000008912B Badalona - Progr… (2.24 41.45)
#> # ℹ 201 more rows
Meteoclimatic data

current_day_barcelona <- get_meteo_from('meteoclimatic', options = api_options)
#> ℹ Meteoclimatic is a non-professional network of automatic meteorological
#>   stations.
#> No quality check is performed in this data, and errors in measures or
#> coordinates of stations can be present.
#> https://www.meteoclimatic.net/index
current_day_barcelona
#> Simple feature collection with 211 features and 9 fields
#> Geometry type: POINT
#> Dimension:     XY
#> Bounding box:  xmin: 1.59 ymin: 41.22 xmax: 2.72 ymax: 42.3
#> Geodetic CRS:  WGS 84
#> # A tibble: 211 × 10
#>    timestamp           service       station_id     station_name min_temperature
#>  * <dttm>              <chr>         <chr>          <chr>                   [°C]
#>  1 2024-10-16 12:59:00 meteoclimatic ESCAT08000000… Seva (Barce…            12.9
#>  2 2024-10-16 12:59:00 meteoclimatic ESCAT08000000… Bagà (centr…            13.1
#>  3 2024-10-16 13:00:00 meteoclimatic ESCAT08000000… Terrassa - …            18.1
#>  4 2024-10-16 13:00:00 meteoclimatic ESCAT08000000… La Pobla de…            13.4
#>  5 2024-10-16 13:04:00 meteoclimatic ESCAT08000000… Montornès d…            16.6
#>  6 2024-10-16 13:04:00 meteoclimatic ESCAT08000000… Cercs (Barc…            13.9
#>  7 2024-10-16 13:07:00 meteoclimatic ESCAT08000000… Cussons - S…            12.4
#>  8 2024-10-16 13:09:00 meteoclimatic ESCAT08000000… Mataró -Nor…            19  
#>  9 2024-10-16 13:09:00 meteoclimatic ESCAT08000000… Cànoves i S…            15.4
#> 10 2024-10-16 13:09:00 meteoclimatic ESCAT08000000… Montseny - …            15.3
#> # ℹ 201 more rows
#> # ℹ 5 more variables: max_temperature [°C], min_relative_humidity [%],
#> #   max_relative_humidity [%], precipitation [L/m^2], geometry <POINT [°]>
…
