MeteoGalicia service • meteospain
…
MeteoGalicia stations info

Accessing station metadata for MeteoGalicia is simple:

get_stations_info_from('meteogalicia')
#> Simple feature collection with 154 features and 5 fields
#> Geometry type: POINT
#> Dimension:     XY
#> Bounding box:  xmin: -9.184586 ymin: 41.8982 xmax: -6.783357 ymax: 43.7383
#> Geodetic CRS:  WGS 84
#> # A tibble: 154 × 6
#>    service      station_id station_name             station_province altitude
#>  * <chr>        <chr>      <chr>                    <chr>                 [m]
#>  1 meteogalicia 10157      Coruña-Torre de Hércules A Coruña               21
#>  2 meteogalicia 14000      Coruña-Dique             A Coruña                5
#>  3 meteogalicia 10045      Mabegondo                A Coruña               94
#>  4 meteogalicia 14003      Punta Langosteira        A Coruña                5
#>  5 meteogalicia 10144      Arzúa                    A Coruña              362
#>  6 meteogalicia 19005      Guísamo                  A Coruña              175
#>  7 meteogalicia 10095      Sergude                  A Coruña              231
#>  8 meteogalicia 10800      Camariñas                A Coruña                5
#>  9 meteogalicia 19001      Rus                      A Coruña              134
#> 10 meteogalicia 10147      Cariño                   A Coruña               20
#> # ℹ 144 more rows
#> # ℹ 1 more variable: geometry <POINT [°]>
…
#> ℹ A información divulgada a través deste servidor ofrécese gratuitamente aos
#>   cidadáns para que poida ser
#> utilizada libremente por eles, co único compromiso de mencionar expresamente a
#> MeteoGalicia e á
#> Consellería de Medio Ambiente, Territorio e Vivenda da Xunta de Galicia como
#> fonte da mesma cada vez
#> que as utilice para os usos distintos do particular e privado.
#> https://www.meteogalicia.gal/web/informacion/notaIndex.action
galicia_2020
#> Simple feature collection with 1782 features and 31 fields (with 24 geometries empty)
#> Geometry type: POINT
#> Dimension:     XY
#> Bounding box:  xmin: -9.178318 ymin: 41.8982 xmax: -6.783357 ymax: 43.70426
#> Geodetic CRS:  WGS 84
#> # A tibble: 1,782 × 32
#>    timestamp           service station_id station_name station_province altitude
#>    <dttm>              <chr>   <chr>      <chr>        <chr>                 [m]
#>  1 2020-01-01 00:00:00 meteog… 10045      Mabegondo    A Coruña               94
#>  2 2020-01-01 00:00:00 meteog… 10046      Marco da Cu… A Coruña              651
#>  3 2020-01-01 00:00:00 meteog… 10047      Pedro Murias Lugo                   51
#>  4 2020-01-01 00:00:00 meteog… 10048      O Invernade… Ourense              1026
#>  5 2020-01-01 00:00:00 meteog… 10049      Corrubedo    A Coruña               30
#>  6 2020-01-01 00:00:00 meteog… 10050      CIS Ferrol   A Coruña               37
#>  7 2020-01-01 00:00:00 meteog… 10052      Muralla      A Coruña              661
#>  8 2020-01-01 00:00:00 meteog… 10053      Campus Lugo  Lugo                  400
#>  9 2020-01-01 00:00:00 meteog… 10055      Guitiriz-Mi… Lugo                  684
#> 10 2020-01-01 00:00:00 meteog… 10056      Marroxo      Lugo                  645
#> # ℹ 1,772 more rows
#> # ℹ 26 more variables: mean_temperature [°C], min_temperature [°C],
#> #   min_temperature_mean [°C], max_temperature [°C], max_temperature_mean [°C],
#> #   mean_relative_humidity [%], min_relative_humidity_mean [%],
#> #   max_relative_humidity_mean [%], precipitation [L/m^2],
#> #   max_precipitation_24h [L/m^2], mean_wind_direction [°],
#> #   max_wind_direction [°], mean_wind_speed [m/s], max_wind_speed [m/s], …
…
