…
### MeteoCat stations info

Accessing station metadata for MeteoCat is simple:

``` r
get_stations_info_from('meteocat', api_options)
#> Simple feature collection with 245 features and 5 fields
#> Geometry type: POINT
#> Dimension:     XY
#> Bounding box:  xmin: 0.30565 ymin: 40.55219 xmax: 3.18147 ymax: 42.77011
#> Geodetic CRS:  WGS 84
#> # A tibble: 245 × 6
#>    service  station_id station_name                   station_province altitude
#>  * <chr>    <chr>      <chr>                          <chr>                 [m]
#>  1 meteocat AN         Barcelona - Av. Lluís Companys Barcelona             7.5
#>  2 meteocat C6         Castellnou de Seana            Lleida              264  
#>  3 meteocat C7         Tàrrega                        Lleida              427  
#>  4 meteocat C8         Cervera                        Lleida              554  
#>  5 meteocat C9         Mas de Barberans               Tarragona           240  
#>  6 meteocat CA         Clariana de Cardener           Lleida              693  
#>  7 meteocat CB         les Llosses                    Girona              700  
#>  8 meteocat CC         Orís                           Barcelona           626  
#>  9 meteocat CD         la Seu d'Urgell - Bellestar    Lleida              849  
#> 10 meteocat CE         els Hostalets de Pierola       Barcelona           316  
#> # ℹ 235 more rows
#> # ℹ 1 more variable: geometry <POINT [°]>
```
…
#> iterating ■■■■■■                            18% | ETA: 16s
#> iterating ■■■■■■■■■■■                       33% | ETA: 13s
#> iterating ■■■■■■■■■■■■■■■■■                 54% | ETA:  8s
#> iterating ■■■■■■■■■■■■■■■■■■■■■■            69% | ETA:  6s
#> iterating ■■■■■■■■■■■■■■■■■■■■■■■■■■■       87% | ETA:  2s
#> iterating ■■■■■■■■■■■■■■■■■■■■■■■■■■■■■■■  100% | ETA:  0s
#> ℹ Data provided by meteo.cat © Servei Meteorològic de Catalunya
#> https://www.meteo.cat/wpweb/avis-legal/#info
catalunya_2020
#> Simple feature collection with 2255 features and 45 fields
#> Geometry type: POINT
#> Dimension:     XY
#> Bounding box:  xmin: 0.30565 ymin: 40.55786 xmax: 3.18147 ymax: 42.77011
#> Geodetic CRS:  WGS 84
#> # A tibble: 2,255 × 46
#>    timestamp           service station_id station_name station_province altitude
#>  * <dttm>              <chr>   <chr>      <chr>        <chr>                 [m]
#>  1 2020-01-01 00:00:00 meteoc… C6         Castellnou … Lleida               264 
#>  2 2020-01-01 00:00:00 meteoc… C7         Tàrrega      Lleida               427 
#>  3 2020-01-01 00:00:00 meteoc… C8         Cervera      Lleida               554 
#>  4 2020-01-01 00:00:00 meteoc… C9         Mas de Barb… Tarragona            240 
#>  5 2020-01-01 00:00:00 meteoc… CC         Orís         Barcelona            626 
#>  6 2020-01-01 00:00:00 meteoc… CD         la Seu d'Ur… Lleida               849 
#>  7 2020-01-01 00:00:00 meteoc… CE         els Hostale… Barcelona            316 
#>  8 2020-01-01 00:00:00 meteoc… CG         Molló - Fab… Girona              1405 
#>  9 2020-01-01 00:00:00 meteoc… CI         Sant Pau de… Girona               852 
#> 10 2020-01-01 00:00:00 meteoc… CJ         Organyà      Lleida               566.
#> # ℹ 2,245 more rows
#> # ℹ 40 more variables: mean_temperature [°C], mean_temperature_classic [°C],
#> #   min_temperature_absolute [°C], min_temperature_mean [°C],
#> #   max_temperature_absolute [°C], max_temperature_mean [°C],
#> #   max_thermal_amplitude [°C], mean_thermal_amplitude [°C],
#> #   extreme_thermal_amplitude [°C], mean_relative_humidity [%],
#> #   min_relative_humidity_absolute [%], min_relative_humidity_mean [%], …
```
…
