…
### Meteoclimatic stations info

Accessing station metadata for Meteoclimatic is simple:

``` r
get_stations_info_from('meteoclimatic', options = api_options)
#> Simple feature collection with 222 features and 3 fields
#> Geometry type: POINT
#> Dimension:     XY
#> Bounding box:  xmin: 1.52 ymin: 1.81 xmax: 41.64 ymax: 42.26
#> Geodetic CRS:  WGS 84
#> # A tibble: 222 × 4
#>    service       station_id          station_name          geometry
#>  * <chr>         <chr>               <chr>              <POINT [°]>
#>  1 meteoclimatic ESCAT0800000008591B Aiguafreda Aj. (… (2.25 41.77)
#>  2 meteoclimatic ESCAT0800000008328F Alella-Mirador (… (2.29 41.49)
#>  3 meteoclimatic ESCAT0800000008350A Arenys de Mar (B… (2.56 41.59)
#>  4 meteoclimatic ESCAT0800000008358A Arenys de Munt (… (2.54 41.61)
#>  5 meteoclimatic ESCAT0800000008310B Argentona (Barce… (2.39 41.56)
#>  6 meteoclimatic ESCAT0800000008610B Avià (Barcelona)  (1.83 42.08)
#>  7 meteoclimatic ESCAT0800000008610A Avià - Sud (Barc… (1.83 42.07)
#>  8 meteoclimatic ESCAT0800000008915C Badalona - BCIN … (2.26 41.46)
#>  9 meteoclimatic ESCAT0800000008915A Badalona - Bufal… (2.24 41.46)
#> 10 meteoclimatic ESCAT0800000008912A Badalona - Centr… (2.25 41.45)
#> # ℹ 212 more rows
```
…
``` r
current_day_barcelona <- get_meteo_from('meteoclimatic', options = api_options)
#> ℹ Meteoclimatic is a non-professional network of automatic meteorological
#>   stations.
#> No quality check is performed in this data, and errors in measures or
#> coordinates of stations can be present.
#> https://www.meteoclimatic.net/index
current_day_barcelona
#> Simple feature collection with 222 features and 13 fields
#> Geometry type: POINT
#> Dimension:     XY
#> Bounding box:  xmin: 1.52 ymin: 1.81 xmax: 41.64 ymax: 42.26
#> Geodetic CRS:  WGS 84
#> # A tibble: 222 × 14
#>    timestamp           service       station_id     station_name min_temperature
#>  * <dttm>              <chr>         <chr>          <chr>                   [°C]
#>  1 2025-11-11 11:31:00 meteoclimatic ESCAT08000000… Seva (Barce…             2.9
#>  2 2025-11-11 11:34:00 meteoclimatic ESCAT08000000… Cussons - S…             0.8
#>  3 2025-11-11 11:37:00 meteoclimatic ESCAT08000000… Vallromanes…             6.9
#>  4 2025-11-11 11:37:00 meteoclimatic ESCAT08000000… La Batllòri…             6.9
#>  5 2025-11-11 11:38:00 meteoclimatic ESCAT08000000… Sant Boi - …             8.6
#>  6 2025-11-11 11:39:00 meteoclimatic ESCAT08000000… Sant Fost -…             5.9
#>  7 2025-11-11 11:39:00 meteoclimatic ESCAT08000000… Sant Fost -…             8  
#>  8 2025-11-11 11:39:00 meteoclimatic ESCAT08000000… Marganell (…             2.6
#>  9 2025-11-11 11:39:00 meteoclimatic ESCAT08000000… Vic - Zona …             3.5
#> 10 2025-11-11 11:40:00 meteoclimatic ESCAT08000000… Badalona - …            10.1
#> # ℹ 212 more rows
#> # ℹ 9 more variables: max_temperature [°C], min_relative_humidity [%],
#> #   max_relative_humidity [%], precipitation [L/m^2], wind_direction [°],
#> #   max_wind_speed [km/h], max_atmospheric_pressure [hPa],
#> #   min_atmospheric_pressure [hPa], geometry <POINT [°]>
```
…
