…
### RIA stations info

Accessing station metadata for RIA is simple:

``` r
get_stations_info_from('ria', api_options)
#> Simple feature collection with 123 features and 7 fields
#> Geometry type: POINT
#> Dimension:     XY
#> Bounding box:  xmin: -7.248333 ymin: 36.285 xmax: -1.770278 ymax: 38.49611
#> Geodetic CRS:  WGS 84
#> # A tibble: 123 × 8
#>    service station_id station_name         station_province province_id altitude
#>  * <chr>   <chr>      <chr>                <chr>                  <int>      [m]
#>  1 ria     14-2       Adamuz               Córdoba                   14      145
#>  2 ria     4-10       Adra                 Almería                    4        2
#>  3 ria     23-6       Alcaudete            Jaén                      23      640
#>  4 ria     4-2        Almería              Almería                    4        5
#>  5 ria     21-10      Almonte              Huelva                    21       13
#>  6 ria     21-103     Almonte bajo plásti… Huelva                    21       38
#>  7 ria     21-104     Almonte bajo plásti… Huelva                    21       23
#>  8 ria     18-11      Almuñecar            Granada                   18       29
#>  9 ria     18-9       Almuñecar            Granada                   18       49
#> 10 ria     29-3       Antequera            Málaga                    29      457
#> # ℹ 113 more rows
#> # ℹ 2 more variables: under_plastic <lgl>, geometry <POINT [°]>
```
…
#> https://www.juntadeandalucia.es/agriculturaypesca/ifapa/riaws/datosmensuales/4/9/2020/1/12:
#> HTTP 404 Not Found.
#> https://www.juntadeandalucia.es/agriculturaypesca/ifapa/riaws/datosmensuales/41/6/2020/1/12:
#> HTTP 404 Not Found.
#> https://www.juntadeandalucia.es/agriculturaypesca/ifapa/riaws/datosmensuales/41/14/2020/1/12:
#> HTTP 404 Not Found.
#> ℹ Data provided by Red de Información Agroclimática de Andalucía (RIA)
#> https://www.juntadeandalucia.es/agriculturaypesca/ifapa/riaweb/web/
andalucia_2020
#> Simple feature collection with 1209 features and 19 fields
#> Geometry type: POINT
#> Dimension:     XY
#> Bounding box:  xmin: -7.248333 ymin: 36.285 xmax: -1.770278 ymax: 38.49611
#> Geodetic CRS:  WGS 84
#> # A tibble: 1,209 × 20
#>    timestamp           service station_id station_name station_province altitude
#>    <dttm>              <chr>   <chr>      <chr>        <chr>                 [m]
#>  1 2020-01-01 00:00:00 ria     14-2       Adamuz       Córdoba               145
#>  2 2020-02-01 00:00:00 ria     14-2       Adamuz       Córdoba               145
#>  3 2020-03-01 00:00:00 ria     14-2       Adamuz       Córdoba               145
#>  4 2020-04-01 00:00:00 ria     14-2       Adamuz       Córdoba               145
#>  5 2020-05-01 00:00:00 ria     14-2       Adamuz       Córdoba               145
#>  6 2020-06-01 00:00:00 ria     14-2       Adamuz       Córdoba               145
#>  7 2020-07-01 00:00:00 ria     14-2       Adamuz       Córdoba               145
#>  8 2020-08-01 00:00:00 ria     14-2       Adamuz       Córdoba               145
#>  9 2020-09-01 00:00:00 ria     14-2       Adamuz       Córdoba               145
#> 10 2020-10-01 00:00:00 ria     14-2       Adamuz       Córdoba               145
#> # ℹ 1,199 more rows
#> # ℹ 14 more variables: mean_temperature [°C], min_temperature [°C],
#> #   max_temperature [°C], mean_relative_humidity [%],
#> #   min_relative_humidity [%], max_relative_humidity [%],
#> #   precipitation [L/m^2], mean_wind_direction [°], max_wind_direction [°],
#> #   mean_wind_speed [m/s], max_wind_speed [m/s], solar_radiation [MJ/(d*m^2)],
#> #   geometry <POINT [°]>, under_plastic <lgl>
```
…
